<svg viewBox="0 0 58 31" fill="none" xmlns="http://www.w3.org/2000/svg" >
<circle cx="15" cy="26" r="5" fill="#9B5BC1" />
<circle cx="29" cy="26" r="5" fill="#9B5BC1" />
<circle cx="43" cy="26" r="5" fill="#9B5BC1" />
<path d="M31.579 13.6H26.379L25.387 16H22.731L27.723 4.8H30.283L35.291 16H32.571L31.579 13.6ZM30.763 11.632L28.987 7.344L27.211 11.632H30.763Z" fill="#9B5BC1" />
</svg>