
<svg viewBox="0 0 32 32" fill="none" xmlns="http://www.w3.org/2000/svg" >
<path d="M22.3061 4.81622C22.2786 4.81622 22.2513 4.81684 22.2239 4.81806H4.95911C4.00662 4.77372 3.19854 5.50987 3.15419 6.46236C3.15289 6.48972 3.15227 6.51716 3.15235 6.54451V31.4378L5.48108 29.2697C5.87309 28.931 6.45424 28.931 6.84618 29.2697L9.89761 31.9999L12.9089 29.2697C13.3069 28.9472 13.8762 28.9472 14.274 29.2697L17.2853 31.9999L20.3368 29.2697C20.7288 28.931 21.3099 28.931 21.7019 29.2697L24.0306 31.4378V6.54451C24.0317 5.59103 23.2596 4.81722 22.3061 4.81622ZM8.61282 10.8406H13.7521C14.0847 10.8406 14.3543 11.1103 14.3543 11.4429C14.3543 11.7755 14.0847 12.0452 13.7521 12.0452H8.61282C8.28021 12.0452 8.01054 11.7755 8.01054 11.4429C8.01062 11.1103 8.28021 10.8406 8.61282 10.8406ZM18.5702 22.4843H8.61282C8.28021 22.4843 8.01054 22.2146 8.01054 21.882C8.01054 21.5494 8.28021 21.2797 8.61282 21.2797H18.5701C18.9027 21.2797 19.1724 21.5494 19.1724 21.882C19.1724 22.2147 18.9028 22.4843 18.5702 22.4843ZM18.5702 17.2647H8.61282C8.28021 17.2647 8.01054 16.995 8.01054 16.6624C8.01054 16.3298 8.28021 16.0602 8.61282 16.0602H18.5701C18.9027 16.0602 19.1724 16.3298 19.1724 16.6624C19.1724 16.995 18.9028 17.2647 18.5702 17.2647Z" fill="#9B5BC1" />
<path d="M27.0422 0H9.77746C8.77318 0.0218256 7.97047 0.84236 7.9707 1.84695V3.61352H22.2241C23.8649 3.59123 25.2131 4.90322 25.2354 6.54399C25.2354 6.54414 25.2354 6.54437 25.2354 6.54452V24.4918C25.6221 24.2087 26.152 24.2252 26.5202 24.532L28.849 26.7001V1.84695C28.8493 0.84236 28.0466 0.0218256 27.0422 0Z" fill="#9B5BC1" />
</svg>