<svg viewBox="0 0 58 31" fill="none" xmlns="http://www.w3.org/2000/svg" >
<circle cx="15" cy="26" r="5" fill="#E0E0E0" />
<circle cx="29" cy="26" r="5" fill="#E0E0E0" />
<circle cx="43" cy="26" r="5" fill="#E0E0E0" />
<path d="M28.9064 16.192C28.0211 16.192 27.1624 16.0747 26.3304 15.84C25.5091 15.5947 24.8478 15.28 24.3464 14.896L25.2264 12.944C25.7064 13.296 26.2771 13.5787 26.9384 13.792C27.5998 14.0053 28.2611 14.112 28.9224 14.112C29.6584 14.112 30.2024 14.0053 30.5544 13.792C30.9064 13.568 31.0824 13.2747 31.0824 12.912C31.0824 12.6453 30.9758 12.4267 30.7624 12.256C30.5598 12.0747 30.2931 11.9307 29.9624 11.824C29.6424 11.7173 29.2051 11.6 28.6504 11.472C27.7971 11.2693 27.0984 11.0667 26.5544 10.864C26.0104 10.6613 25.5411 10.336 25.1464 9.888C24.7624 9.44 24.5704 8.84267 24.5704 8.096C24.5704 7.44533 24.7464 6.85867 25.0984 6.336C25.4504 5.80267 25.9784 5.38133 26.6824 5.072C27.3971 4.76267 28.2664 4.608 29.2904 4.608C30.0051 4.608 30.7038 4.69333 31.3864 4.864C32.0691 5.03467 32.6664 5.28 33.1784 5.6L32.3784 7.568C31.3438 6.98133 30.3091 6.688 29.2744 6.688C28.5491 6.688 28.0104 6.80533 27.6584 7.04C27.3171 7.27467 27.1464 7.584 27.1464 7.968C27.1464 8.352 27.3438 8.64 27.7384 8.832C28.1438 9.01333 28.7571 9.19467 29.5784 9.376C30.4318 9.57867 31.1304 9.78133 31.6744 9.984C32.2184 10.1867 32.6824 10.5067 33.0664 10.944C33.4611 11.3813 33.6584 11.9733 33.6584 12.72C33.6584 13.36 33.4771 13.9467 33.1144 14.48C32.7624 15.0027 32.2291 15.4187 31.5144 15.728C30.7998 16.0373 29.9304 16.192 28.9064 16.192Z" fill="#9B5BC1" />
</svg>