<svg width="180" height="80" viewBox="0 0 180 80" fill="none" xmlns="http://www.w3.org/2000/svg">
<path d="M50.746 72L48.046 68.1H47.886H45.066V72H41.826V58H47.886C49.126 58 50.1993 58.2067 51.106 58.62C52.026 59.0333 52.7327 59.62 53.226 60.38C53.7194 61.14 53.966 62.04 53.966 63.08C53.966 64.12 53.7127 65.02 53.206 65.78C52.7127 66.5267 52.006 67.1 51.086 67.5L54.226 72H50.746ZM50.686 63.08C50.686 62.2933 50.4327 61.6933 49.926 61.28C49.4193 60.8533 48.6793 60.64 47.706 60.64H45.066V65.52H47.706C48.6793 65.52 49.4193 65.3067 49.926 64.88C50.4327 64.4533 50.686 63.8533 50.686 63.08ZM66.853 66.66C66.853 66.7 66.833 66.98 66.793 67.5H58.653C58.7997 68.1667 59.1464 68.6933 59.693 69.08C60.2397 69.4667 60.9197 69.66 61.733 69.66C62.293 69.66 62.7864 69.58 63.213 69.42C63.653 69.2467 64.0597 68.98 64.433 68.62L66.093 70.42C65.0797 71.58 63.5997 72.16 61.653 72.16C60.4397 72.16 59.3664 71.9267 58.433 71.46C57.4997 70.98 56.7797 70.32 56.273 69.48C55.7664 68.64 55.513 67.6867 55.513 66.62C55.513 65.5667 55.7597 64.62 56.253 63.78C56.7597 62.9267 57.4464 62.2667 58.313 61.8C59.193 61.32 60.173 61.08 61.253 61.08C62.3064 61.08 63.2597 61.3067 64.113 61.76C64.9664 62.2133 65.633 62.8667 66.113 63.72C66.6064 64.56 66.853 65.54 66.853 66.66ZM61.273 63.44C60.5664 63.44 59.973 63.64 59.493 64.04C59.013 64.44 58.7197 64.9867 58.613 65.68H63.913C63.8064 65 63.513 64.46 63.033 64.06C62.553 63.6467 61.9664 63.44 61.273 63.44ZM72.3502 61.48H75.1102V63.88H72.4302V72H69.3102V63.88H67.6502V61.48H69.3102V61C69.3102 59.7733 69.6702 58.8 70.3902 58.08C71.1236 57.36 72.1502 57 73.4702 57C73.9369 57 74.3769 57.0533 74.7902 57.16C75.2169 57.2533 75.5702 57.3933 75.8502 57.58L75.0302 59.84C74.6702 59.5867 74.2502 59.46 73.7702 59.46C72.8236 59.46 72.3502 59.98 72.3502 61.02V61.48ZM87.0679 66.66C87.0679 66.7 87.0479 66.98 87.0079 67.5H78.8679C79.0146 68.1667 79.3612 68.6933 79.9079 69.08C80.4546 69.4667 81.1346 69.66 81.9479 69.66C82.5079 69.66 83.0012 69.58 83.4279 69.42C83.8679 69.2467 84.2746 68.98 84.6479 68.62L86.3079 70.42C85.2946 71.58 83.8146 72.16 81.8679 72.16C80.6546 72.16 79.5812 71.9267 78.6479 71.46C77.7146 70.98 76.9946 70.32 76.4879 69.48C75.9812 68.64 75.7279 67.6867 75.7279 66.62C75.7279 65.5667 75.9746 64.62 76.4679 63.78C76.9746 62.9267 77.6612 62.2667 78.5279 61.8C79.4079 61.32 80.3879 61.08 81.4679 61.08C82.5212 61.08 83.4746 61.3067 84.3279 61.76C85.1812 62.2133 85.8479 62.8667 86.3279 63.72C86.8212 64.56 87.0679 65.54 87.0679 66.66ZM81.4879 63.44C80.7812 63.44 80.1879 63.64 79.7079 64.04C79.2279 64.44 78.9346 64.9867 78.8279 65.68H84.1279C84.0212 65 83.7279 64.46 83.2479 64.06C82.7679 63.6467 82.1812 63.44 81.4879 63.44ZM92.1251 62.66C92.4984 62.14 92.9984 61.7467 93.6251 61.48C94.2651 61.2133 94.9984 61.08 95.8251 61.08V63.96C95.4784 63.9333 95.2451 63.92 95.1251 63.92C94.2317 63.92 93.5317 64.1733 93.0251 64.68C92.5184 65.1733 92.2651 65.92 92.2651 66.92V72H89.1451V61.24H92.1251V62.66ZM97.6802 61.24H100.8V72H97.6802V61.24ZM99.2402 59.74C98.6669 59.74 98.2002 59.5733 97.8402 59.24C97.4802 58.9067 97.3002 58.4933 97.3002 58C97.3002 57.5067 97.4802 57.0933 97.8402 56.76C98.2002 56.4267 98.6669 56.26 99.2402 56.26C99.8136 56.26 100.28 56.42 100.64 56.74C101 57.06 101.18 57.46 101.18 57.94C101.18 58.46 101 58.8933 100.64 59.24C100.28 59.5733 99.8136 59.74 99.2402 59.74ZM114.656 57.16V72H111.676V70.76C110.903 71.6933 109.783 72.16 108.316 72.16C107.303 72.16 106.383 71.9333 105.556 71.48C104.743 71.0267 104.103 70.38 103.636 69.54C103.169 68.7 102.936 67.7267 102.936 66.62C102.936 65.5133 103.169 64.54 103.636 63.7C104.103 62.86 104.743 62.2133 105.556 61.76C106.383 61.3067 107.303 61.08 108.316 61.08C109.689 61.08 110.763 61.5133 111.536 62.38V57.16H114.656ZM108.856 69.6C109.643 69.6 110.296 69.3333 110.816 68.8C111.336 68.2533 111.596 67.5267 111.596 66.62C111.596 65.7133 111.336 64.9933 110.816 64.46C110.296 63.9133 109.643 63.64 108.856 63.64C108.056 63.64 107.396 63.9133 106.876 64.46C106.356 64.9933 106.096 65.7133 106.096 66.62C106.096 67.5267 106.356 68.2533 106.876 68.8C107.396 69.3333 108.056 69.6 108.856 69.6ZM122.664 72.16C121.53 72.16 120.51 71.9267 119.604 71.46C118.71 70.98 118.01 70.32 117.504 69.48C116.997 68.64 116.744 67.6867 116.744 66.62C116.744 65.5533 116.997 64.6 117.504 63.76C118.01 62.92 118.71 62.2667 119.604 61.8C120.51 61.32 121.53 61.08 122.664 61.08C123.797 61.08 124.81 61.32 125.704 61.8C126.597 62.2667 127.297 62.92 127.804 63.76C128.31 64.6 128.564 65.5533 128.564 66.62C128.564 67.6867 128.31 68.64 127.804 69.48C127.297 70.32 126.597 70.98 125.704 71.46C124.81 71.9267 123.797 72.16 122.664 72.16ZM122.664 69.6C123.464 69.6 124.117 69.3333 124.624 68.8C125.144 68.2533 125.404 67.5267 125.404 66.62C125.404 65.7133 125.144 64.9933 124.624 64.46C124.117 63.9133 123.464 63.64 122.664 63.64C121.864 63.64 121.204 63.9133 120.684 64.46C120.164 64.9933 119.904 65.7133 119.904 66.62C119.904 67.5267 120.164 68.2533 120.684 68.8C121.204 69.3333 121.864 69.6 122.664 69.6ZM134.269 72.16C133.376 72.16 132.502 72.0533 131.649 71.84C130.796 71.6133 130.116 71.3333 129.609 71L130.649 68.76C131.129 69.0667 131.709 69.32 132.389 69.52C133.069 69.7067 133.736 69.8 134.389 69.8C135.709 69.8 136.369 69.4733 136.369 68.82C136.369 68.5133 136.189 68.2933 135.829 68.16C135.469 68.0267 134.916 67.9133 134.169 67.82C133.289 67.6867 132.562 67.5333 131.989 67.36C131.416 67.1867 130.916 66.88 130.489 66.44C130.076 66 129.869 65.3733 129.869 64.56C129.869 63.88 130.062 63.28 130.449 62.76C130.849 62.2267 131.422 61.8133 132.169 61.52C132.929 61.2267 133.822 61.08 134.849 61.08C135.609 61.08 136.362 61.1667 137.109 61.34C137.869 61.5 138.496 61.7267 138.989 62.02L137.949 64.24C137.002 63.7067 135.969 63.44 134.849 63.44C134.182 63.44 133.682 63.5333 133.349 63.72C133.016 63.9067 132.849 64.1467 132.849 64.44C132.849 64.7733 133.029 65.0067 133.389 65.14C133.749 65.2733 134.322 65.4 135.109 65.52C135.989 65.6667 136.709 65.8267 137.269 66C137.829 66.16 138.316 66.46 138.729 66.9C139.142 67.34 139.349 67.9533 139.349 68.74C139.349 69.4067 139.149 70 138.749 70.52C138.349 71.04 137.762 71.4467 136.989 71.74C136.229 72.02 135.322 72.16 134.269 72.16Z" fill="white"/>
<g opacity="0.2">
<path d="M107.071 22.1351H103.359C103.737 23.1783 103.944 24.304 103.944 25.4773V39.6044C103.944 40.0936 103.859 40.5631 103.706 40.9998H109.843C112.135 40.9998 114 39.1218 114 36.8135V29.1122C114 25.2651 110.892 22.1351 107.071 22.1351Z" fill="white"/>
<path d="M76.0561 25.4774C76.0561 24.304 76.2628 23.1783 76.6412 22.1352H72.9291C69.1084 22.1352 66 25.2652 66 29.1124V36.8137C66 39.122 67.865 41 70.1575 41H76.2945C76.1407 40.5631 76.0561 40.0937 76.0561 39.6045V25.4774Z" fill="white"/>
<path d="M94.2433 18.5002H85.7568C81.9361 18.5002 78.8277 21.6302 78.8277 25.4774V39.6045C78.8277 40.3751 79.4482 40.9999 80.2135 40.9999H99.7865C100.552 40.9999 101.172 40.3752 101.172 39.6045V25.4774C101.172 21.6302 98.064 18.5002 94.2433 18.5002Z" fill="white"/>
<path d="M90.0002 0C85.4053 0 81.6671 3.76414 81.6671 8.39101C81.6671 11.5294 83.3873 14.2703 85.9278 15.7094C87.1327 16.3919 88.5219 16.7819 90.0002 16.7819C91.4784 16.7819 92.8676 16.3919 94.0726 15.7094C96.6131 14.2703 98.3333 11.5293 98.3333 8.39101C98.3333 3.76424 94.5951 0 90.0002 0Z" fill="white"/>
<path d="M75.3674 7.82101C71.931 7.82101 69.1353 10.636 69.1353 14.0963C69.1353 17.5566 71.931 20.3716 75.3674 20.3716C76.2391 20.3716 77.0692 20.1898 77.8232 19.863C79.1269 19.2978 80.2018 18.2973 80.867 17.0442C81.3339 16.1646 81.5995 15.1612 81.5995 14.0963C81.5995 10.6361 78.8038 7.82101 75.3674 7.82101Z" fill="white"/>
<path d="M104.633 7.82101C101.196 7.82101 98.4008 10.636 98.4008 14.0963C98.4008 15.1613 98.6664 16.1647 99.1333 17.0442C99.7984 18.2974 100.873 19.2979 102.177 19.863C102.931 20.1898 103.761 20.3716 104.633 20.3716C108.069 20.3716 110.865 17.5566 110.865 14.0963C110.865 10.636 108.069 7.82101 104.633 7.82101Z" fill="white"/>
</g>
</svg>
